﻿
DisplayName "Pocket Castle 2F (East)"



EVENT   2
 PAGE   1
  0()



EVENT   3
 PAGE   1
  0()



EVENT   4
 PAGE   1
  0()



EVENT   5
 PAGE   1
  0()



EVENT   6
 PAGE   1
  0()



EVENT   7
 PAGE   1
  0()



EVENT   8
 PAGE   1
  0()



EVENT   9
 PAGE   1
  0()



EVENT   10
 PAGE   1
  0()



EVENT   11
 PAGE   1
  0()



EVENT   12
 PAGE   1
  0()



EVENT   13
 PAGE   1
  0()



EVENT   14
 PAGE   1
  0()



EVENT   15
 PAGE   1
  0()



EVENT   22
 PAGE   1
  0()



EVENT   23
 PAGE   1
  0()



EVENT   24
 PAGE   1
  0()



EVENT   25
 PAGE   1
  0()



EVENT   27
 PAGE   1
  0()



EVENT   28
 PAGE   1
  0()



EVENT   26
 PAGE   1
  0()



EVENT   29
 PAGE   1
  0()



EVENT   30
 PAGE   1
  0()



EVENT   31
 PAGE   1
  0()



EVENT   32
 PAGE   1
  0()



EVENT   33
 PAGE   1
  0()



EVENT   34
 PAGE   1
  0()



EVENT   35
 PAGE   1
  0()



EVENT   36
 PAGE   1
  0()



EVENT   37
 PAGE   1
  0()



EVENT   38
 PAGE   1
  0()



EVENT   1
 PAGE   1
  281(0)
  250(bytes(0x04,0x08,0x6f,0x3a,0x0c,0x52,0x50,0x47,0x3a,0x3a,0x53,0x45,0x08,0x3a,0x0a,0x40,0x6e,0x61,0x6d,0x65,0x49,0x22,0x09,0x4d,0x6f,0x76,0x65,0x06,0x3a,0x06,0x45,0x54,0x3a,0x0b,0x40,0x70,0x69,0x74,0x63,0x68,0x69,0x69,0x3a,0x0c,0x40,0x76,0x6f,0x6c,0x75,0x6d,0x65,0x69,0x55))
  TeleportPlayer(0,229,32,7,0,0)
  0()



EVENT   40
 PAGE   1
  281(0)
  250(bytes(0x04,0x08,0x6f,0x3a,0x0c,0x52,0x50,0x47,0x3a,0x3a,0x53,0x45,0x08,0x3a,0x0a,0x40,0x6e,0x61,0x6d,0x65,0x49,0x22,0x09,0x4d,0x6f,0x76,0x65,0x06,0x3a,0x06,0x45,0x54,0x3a,0x0b,0x40,0x70,0x69,0x74,0x63,0x68,0x69,0x69,0x3a,0x0c,0x40,0x76,0x6f,0x6c,0x75,0x6d,0x65,0x69,0x55))
  TeleportPlayer(0,126,41,5,0,0)
  0()



EVENT   43
 PAGE   1
  281(0)
  250(bytes(0x04,0x08,0x6f,0x3a,0x0c,0x52,0x50,0x47,0x3a,0x3a,0x53,0x45,0x08,0x3a,0x0a,0x40,0x6e,0x61,0x6d,0x65,0x49,0x22,0x09,0x4d,0x6f,0x76,0x65,0x06,0x3a,0x06,0x45,0x54,0x3a,0x0b,0x40,0x70,0x69,0x74,0x63,0x68,0x69,0x69,0x3a,0x0c,0x40,0x76,0x6f,0x6c,0x75,0x6d,0x65,0x69,0x55))
  TeleportPlayer(0,276,48,22,4,0)
  0()



EVENT   39
 PAGE   1
  281(0)
  250(bytes(0x04,0x08,0x6f,0x3a,0x0c,0x52,0x50,0x47,0x3a,0x3a,0x53,0x45,0x08,0x3a,0x0a,0x40,0x6e,0x61,0x6d,0x65,0x49,0x22,0x09,0x4d,0x6f,0x76,0x65,0x06,0x3a,0x06,0x45,0x54,0x3a,0x0b,0x40,0x70,0x69,0x74,0x63,0x68,0x69,0x69,0x3a,0x0c,0x40,0x76,0x6f,0x6c,0x75,0x6d,0x65,0x69,0x55))
  TeleportPlayer(0,229,33,7,0,0)
  0()



EVENT   41
 PAGE   1
  281(0)
  250(bytes(0x04,0x08,0x6f,0x3a,0x0c,0x52,0x50,0x47,0x3a,0x3a,0x53,0x45,0x08,0x3a,0x0a,0x40,0x6e,0x61,0x6d,0x65,0x49,0x22,0x09,0x4d,0x6f,0x76,0x65,0x06,0x3a,0x06,0x45,0x54,0x3a,0x0b,0x40,0x70,0x69,0x74,0x63,0x68,0x69,0x69,0x3a,0x0c,0x40,0x76,0x6f,0x6c,0x75,0x6d,0x65,0x69,0x55))
  TeleportPlayer(0,126,41,5,0,0)
  0()



EVENT   42
 PAGE   1
  281(0)
  250(bytes(0x04,0x08,0x6f,0x3a,0x0c,0x52,0x50,0x47,0x3a,0x3a,0x53,0x45,0x08,0x3a,0x0a,0x40,0x6e,0x61,0x6d,0x65,0x49,0x22,0x09,0x4d,0x6f,0x76,0x65,0x06,0x3a,0x06,0x45,0x54,0x3a,0x0b,0x40,0x70,0x69,0x74,0x63,0x68,0x69,0x69,0x3a,0x0c,0x40,0x76,0x6f,0x6c,0x75,0x6d,0x65,0x69,0x55))
  TeleportPlayer(0,126,41,5,0,0)
  0()



EVENT   44
 PAGE   1
  281(0)
  250(bytes(0x04,0x08,0x6f,0x3a,0x0c,0x52,0x50,0x47,0x3a,0x3a,0x53,0x45,0x08,0x3a,0x0a,0x40,0x6e,0x61,0x6d,0x65,0x49,0x22,0x09,0x4d,0x6f,0x76,0x65,0x06,0x3a,0x06,0x45,0x54,0x3a,0x0b,0x40,0x70,0x69,0x74,0x63,0x68,0x69,0x69,0x3a,0x0c,0x40,0x76,0x6f,0x6c,0x75,0x6d,0x65,0x69,0x55))
  TeleportPlayer(0,276,48,22,4,0)
  0()



EVENT   45
 PAGE   1
  281(0)
  250(bytes(0x04,0x08,0x6f,0x3a,0x0c,0x52,0x50,0x47,0x3a,0x3a,0x53,0x45,0x08,0x3a,0x0a,0x40,0x6e,0x61,0x6d,0x65,0x49,0x22,0x09,0x4d,0x6f,0x76,0x65,0x06,0x3a,0x06,0x45,0x54,0x3a,0x0b,0x40,0x70,0x69,0x74,0x63,0x68,0x69,0x69,0x3a,0x0c,0x40,0x76,0x6f,0x6c,0x75,0x6d,0x65,0x69,0x55))
  TeleportPlayer(0,276,48,22,4,0)
  0()



EVENT   46
 PAGE   1
  281(0)
  250(bytes(0x04,0x08,0x6f,0x3a,0x0c,0x52,0x50,0x47,0x3a,0x3a,0x53,0x45,0x08,0x3a,0x0a,0x40,0x6e,0x61,0x6d,0x65,0x49,0x22,0x09,0x4d,0x6f,0x76,0x65,0x06,0x3a,0x06,0x45,0x54,0x3a,0x0b,0x40,0x70,0x69,0x74,0x63,0x68,0x69,0x69,0x3a,0x0c,0x40,0x76,0x6f,0x6c,0x75,0x6d,0x65,0x69,0x55))
  TeleportPlayer(0,276,48,22,4,0)
  0()



EVENT   47
 PAGE   1
  281(0)
  250(bytes(0x04,0x08,0x6f,0x3a,0x0c,0x52,0x50,0x47,0x3a,0x3a,0x53,0x45,0x08,0x3a,0x0a,0x40,0x6e,0x61,0x6d,0x65,0x49,0x22,0x09,0x4d,0x6f,0x76,0x65,0x06,0x3a,0x06,0x45,0x54,0x3a,0x0b,0x40,0x70,0x69,0x74,0x63,0x68,0x69,0x69,0x3a,0x0c,0x40,0x76,0x6f,0x6c,0x75,0x6d,0x65,0x69,0x55))
  TeleportPlayer(0,276,48,22,4,0)
  0()



EVENT   48
 PAGE   1
  281(0)
  250(bytes(0x04,0x08,0x6f,0x3a,0x0c,0x52,0x50,0x47,0x3a,0x3a,0x53,0x45,0x08,0x3a,0x0a,0x40,0x6e,0x61,0x6d,0x65,0x49,0x22,0x09,0x4d,0x6f,0x76,0x65,0x06,0x3a,0x06,0x45,0x54,0x3a,0x0b,0x40,0x70,0x69,0x74,0x63,0x68,0x69,0x69,0x3a,0x0c,0x40,0x76,0x6f,0x6c,0x75,0x6d,0x65,0x69,0x55))
  TeleportPlayer(0,276,48,22,4,0)
  0()



EVENT   49
 PAGE   1
  281(0)
  250(bytes(0x04,0x08,0x6f,0x3a,0x0c,0x52,0x50,0x47,0x3a,0x3a,0x53,0x45,0x08,0x3a,0x0a,0x40,0x6e,0x61,0x6d,0x65,0x49,0x22,0x09,0x4d,0x6f,0x76,0x65,0x06,0x3a,0x06,0x45,0x54,0x3a,0x0b,0x40,0x70,0x69,0x74,0x63,0x68,0x69,0x69,0x3a,0x0c,0x40,0x76,0x6f,0x6c,0x75,0x6d,0x65,0x69,0x55))
  TeleportPlayer(0,276,48,22,4,0)
  0()



EVENT   50
 PAGE   1
  // condition: switch 1074 is ON
  PictureDisplay(5,"80_usagi_st01",0,0,0,0,100,100,0,0)
  PictureMove(5,null,0,0,0,0,100,100,255,0,30,true)
  If(1,3074,0,10,1)
   If(1,4074,0,0,0)
    ChangeVariable(4074,4074,0,0,1)
    ShowMessageFace("usagi_fc1",0,0,2,1)
    ShowMessage("\\n<Barnny (Affection:\\V[3074])>はい、どうぞ…… お姉さんから、プレゼントよ♪")
    250(bytes(0x04,0x08,0x6f,0x3a,0x0c,0x52,0x50,0x47,0x3a,0x3a,0x53,0x45,0x08,0x3a,0x0a,0x40,0x6e,0x61,0x6d,0x65,0x49,0x22,0x0a,0x49,0x74,0x65,0x6d,0x31,0x06,0x3a,0x06,0x45,0x54,0x3a,0x0b,0x40,0x70,0x69,0x74,0x63,0x68,0x69,0x69,0x3a,0x0c,0x40,0x76,0x6f,0x6c,0x75,0x6d,0x65,0x69,0x55))
    ChangeInventory_Item(310,0,0,3)
    0()
   EndIf()
   0()
  EndIf()
  If(1,3074,0,100,1)
   If(1,4074,0,1,0)
    ChangeVariable(4074,4074,0,0,2)
    ShowMessageFace("usagi_fc1",0,0,2,2)
    ShowMessage("\\n<Barnny (Affection:\\V[3074])>はい、どうぞ…… お姉さんから、プレゼントよ♪")
    250(bytes(0x04,0x08,0x6f,0x3a,0x0c,0x52,0x50,0x47,0x3a,0x3a,0x53,0x45,0x08,0x3a,0x0a,0x40,0x6e,0x61,0x6d,0x65,0x49,0x22,0x0a,0x49,0x74,0x65,0x6d,0x31,0x06,0x3a,0x06,0x45,0x54,0x3a,0x0b,0x40,0x70,0x69,0x74,0x63,0x68,0x69,0x69,0x3a,0x0c,0x40,0x76,0x6f,0x6c,0x75,0x6d,0x65,0x69,0x55))
    ChangeInventoryArmor(1041,0,0,1,false)
    0()
   EndIf()
   0()
  EndIf()
  If(1,3074,0,500,1)
   If(1,4074,0,2,0)
    ChangeVariable(4074,4074,0,0,3)
    ShowMessageFace("usagi_fc1",0,0,2,3)
    ShowMessage("\\n<Barnny (Affection:\\V[3074])>はい、どうぞ…… お姉さんから、プレゼントよ♪")
    250(bytes(0x04,0x08,0x6f,0x3a,0x0c,0x52,0x50,0x47,0x3a,0x3a,0x53,0x45,0x08,0x3a,0x0a,0x40,0x6e,0x61,0x6d,0x65,0x49,0x22,0x0a,0x49,0x74,0x65,0x6d,0x31,0x06,0x3a,0x06,0x45,0x54,0x3a,0x0b,0x40,0x70,0x69,0x74,0x63,0x68,0x69,0x69,0x3a,0x0c,0x40,0x76,0x6f,0x6c,0x75,0x6d,0x65,0x69,0x55))
    ChangeInventoryArmor(1737,0,0,1,false)
    0()
   EndIf()
   0()
  EndIf()
  If(1,3074,0,2000,1)
   If(1,4074,0,3,0)
    ChangeVariable(4074,4074,0,0,4)
    ShowMessageFace("usagi_fc1",0,0,2,4)
    ShowMessage("\\n<Barnny (Affection:\\V[3074])>はい、どうぞ…… お姉さんから、プレゼントよ♪")
    250(bytes(0x04,0x08,0x6f,0x3a,0x0c,0x52,0x50,0x47,0x3a,0x3a,0x53,0x45,0x08,0x3a,0x0a,0x40,0x6e,0x61,0x6d,0x65,0x49,0x22,0x0a,0x49,0x74,0x65,0x6d,0x31,0x06,0x3a,0x06,0x45,0x54,0x3a,0x0b,0x40,0x70,0x69,0x74,0x63,0x68,0x69,0x69,0x3a,0x0c,0x40,0x76,0x6f,0x6c,0x75,0x6d,0x65,0x69,0x55))
    ChangeInventoryArmor(1043,0,0,1,false)
    0()
   EndIf()
   0()
  EndIf()
  355("actor_label_jump")
  ShowMessageFace("usagi_fc1",0,0,2,5)
  ShowMessage("\\n<Barnny (Affection:\\V[3074])>なんで私が、バーテンなんてやってるのかしらね…… あらお客さん、何か飲んでいく？")
  JumpToLabel("メニュー")
  DefineLabel("54")
  ShowMessageFace("usagi_fc1",0,0,2,6)
  ShowMessage("\\n<Barnny (Affection:\\V[3074])>こんにちは、うさぎちゃん。")
  ShowMessageFace("bunnyslime_fc1",0,0,2,7)
  ShowMessage("\\n<Bunni (Affection:\\V[3054])>うさうさ！　うさぎのお姉さんだ！ ねぇねぇ、あたしもセクシーなうさぎになれるかな？")
  ShowMessageFace("usagi_fc1",0,0,2,8)
  ShowMessage("\\n<Barnny (Affection:\\V[3074])>ど、どうなのかしらね…… スライムの体の事はよく分からないけど、なれるんじゃない？")
  ShowMessageFace("bunnyslime_fc1",0,0,2,9)
  ShowMessage("\\n<Bunni (Affection:\\V[3054])>うさうさ～！ がんばって、にんじんたくさん食べるぞ～！")
  ShowMessageFace("usagi_fc1",0,0,2,10)
  ShowMessage("\\n<Barnny (Affection:\\V[3074])>にんじんをたくさん食べても、うさぎになれるわけじゃ…… いえいえ、なんでもないわよ。")
  JumpToLabel("メニュー")
  DefineLabel("57")
  ShowMessageFace("inp_fc3",0,0,2,11)
  ShowMessage("\\n<Rumi (Affection:\\V[3057])>くた～")
  ShowMessageFace("usagi_fc1",0,0,2,12)
  ShowMessage("\\n<Barnny (Affection:\\V[3074])>ずいぶんぐったりしてるわね…… 悩みがあるんなら、お姉さんが聞くわよ？")
  ShowMessageFace("inp_fc3",2,0,2,13)
  ShowMessage("\\n<Rumi (Affection:\\V[3057])>息をするのも、めんどくさい……")
  ShowMessageFace("usagi_fc1",2,0,2,14)
  ShowMessage("\\n<Barnny (Affection:\\V[3074])>それは悩みなの……？ 困った子ね……")
  JumpToLabel("メニュー")
  DefineLabel("75")
  ShowMessageFace("usagi_fc1",0,0,2,15)
  ShowMessage("\\n<Barnny (Affection:\\V[3074])>ひつじちゃん、今日は飲み過ぎじゃないの？ ちょっとはお酒を控えなさいよ……")
  ShowMessageFace("hituzi_fc1",2,0,2,16)
  ShowMessage("\\n<Mary (Affection:\\V[3075])>うさぎはうるさいのら…… ガタガタ言わずに酒を出すのだ……")
  ShowMessageFace("hituzi_fc1",3,0,2,17)
  ShowMessage("\\n<Mary (Affection:\\V[3075])>でも、心配してくれて嬉しいのらよ。 うさぎはいい嫁さんになるのら……")
  ShowMessageFace("usagi_fc1",0,0,2,18)
  ShowMessage("\\n<Barnny (Affection:\\V[3074])>はいはい、分かったからその一杯で終わりね。 ここじゃ冷えるから、ちゃんと部屋で寝なさい。")
  ShowMessageFace("hituzi_fc1",3,0,2,19)
  ShowMessage("\\n<Mary (Affection:\\V[3075])>ＺＺＺ……")
  ShowMessageFace("usagi_fc1",2,0,2,20)
  ShowMessage("\\n<Barnny (Affection:\\V[3074])>もう……")
  JumpToLabel("メニュー")
  DefineLabel("129")
  ShowMessageFace("brunhild_fc1",0,0,2,21)
  ShowMessage("\\n<Hild (Affection:\\V[3129])>バーニーも、うさみみ…… ヒルデも、おそろい……")
  ShowMessageFace("usagi_fc1",0,0,2,22)
  ShowMessage("\\n<Barnny (Affection:\\V[3074])>あら、本当ね。 なんでロボットなのに、うさみみがあるのかしら？")
  ShowMessageFace("brunhild_fc1",0,0,2,23)
  ShowMessage("\\n<Hild (Affection:\\V[3129])>ヒルデ、うさぎロボット……？")
  ShowMessageFace("usagi_fc1",0,0,2,24)
  ShowMessage("\\n<Barnny (Affection:\\V[3074])>本当、変わった子よねぇ……")
  JumpToLabel("メニュー")
  DefineLabel("メニュー")
  StartLoop()
   355("unlimited_choices(11, [\"Give presents\",")
   655("\"Add to party\",")
   655("\"View present list\",\"Request\",")
   655("\"Never mind\"])")
   If(1,11,0,0,0)
    355("present_start(74)")
    0()
   EndIf()
   If(1,11,0,1,0)
    PictureClear(5)
    355("move_actor_ex(74)")
    EndEventProcessing()
    0()
   EndIf()
   If(1,11,0,2,0)
    ShowMessageFace("",0,0,2,25)
    ShowMessage("Affection   10:\\ii[310]")
    ShowMessage("Affection  100:\\ia[1041]")
    ShowMessage("Affection  500:\\ia[1737]")
    ShowMessage("Affection 2000:\\ia[1043]")
    0()
   EndIf()
   If(1,11,0,3,0)
    PictureClear(5)
    ShowMessageFace("",0,0,2,26)
    ShowMessage("Ask her for what? (Affection:\\V[3074])")
    ShowChoices(strings("Stocking Footjob(Affection:10）","Bare Footjob(Affection:30）","Reverse rape(Affection:100）","Never mind"),4)
    IfPlayerPicksChoice(0,null)
     If(1,3074,0,10,1)
      355("call_novel_scene(4161)")
      EndEventProcessing()
      0()
     Else()
      ShowMessageFace("usagi_fc1",0,0,2,27)
      ShowMessage("\\n<Barnny (Affection:\\V[3074])>ごめんなさい……お姉さん、いま忙しいの。 また今度、遊んであげるわ……")
      0()
     EndIf()
     0()
    IfPlayerPicksChoice(1,null)
     If(1,3074,0,30,1)
      355("call_novel_scene(4162)")
      EndEventProcessing()
      0()
     Else()
      ShowMessageFace("usagi_fc1",0,0,2,28)
      ShowMessage("\\n<Barnny (Affection:\\V[3074])>ごめんなさい……お姉さん、いま忙しいの。 また今度、遊んであげるわ……")
      0()
     EndIf()
     0()
    IfPlayerPicksChoice(2,null)
     If(1,3074,0,100,1)
      355("call_novel_scene(4163)")
      EndEventProcessing()
      0()
     Else()
      ShowMessageFace("usagi_fc1",0,0,2,29)
      ShowMessage("\\n<Barnny (Affection:\\V[3074])>ごめんなさい……お姉さん、いま忙しいの。 また今度、遊んであげるわ……")
      0()
     EndIf()
     0()
    IfPlayerPicksChoice(3,null)
     0()
    404()
    0()
   EndIf()
   If(1,11,0,4,1)
    PictureClear(5)
    EndEventProcessing()
    0()
   EndIf()
   0()
  EndLoop()
  0()
 PAGE   2
  // condition: party contains actor #74
  0()



EVENT   51
 PAGE   1
  // condition: switch 1075 is ON
  PictureDisplay(5,"80_hituzi_st04",0,0,0,0,100,100,0,0)
  PictureMove(5,null,0,0,0,0,100,100,255,0,30,true)
  If(1,3075,0,10,1)
   If(1,4075,0,0,0)
    ChangeVariable(4075,4075,0,0,1)
    ShowMessageFace("hituzi_fc1",3,0,2,1)
    ShowMessage("\\n<Mary (Affection:\\V[3075])>ひつじさんがプレゼントをあげるのら。 大切に使うのらよ……")
    250(bytes(0x04,0x08,0x6f,0x3a,0x0c,0x52,0x50,0x47,0x3a,0x3a,0x53,0x45,0x08,0x3a,0x0a,0x40,0x6e,0x61,0x6d,0x65,0x49,0x22,0x0a,0x49,0x74,0x65,0x6d,0x31,0x06,0x3a,0x06,0x45,0x54,0x3a,0x0b,0x40,0x70,0x69,0x74,0x63,0x68,0x69,0x69,0x3a,0x0c,0x40,0x76,0x6f,0x6c,0x75,0x6d,0x65,0x69,0x55))
    ChangeInventory_Item(431,0,0,1)
    0()
   EndIf()
   0()
  EndIf()
  If(1,3075,0,100,1)
   If(1,4075,0,1,0)
    ChangeVariable(4075,4075,0,0,2)
    ShowMessageFace("hituzi_fc1",3,0,2,2)
    ShowMessage("\\n<Mary (Affection:\\V[3075])>ひつじさんがプレゼントをあげるのら。 大切に使うのらよ……")
    250(bytes(0x04,0x08,0x6f,0x3a,0x0c,0x52,0x50,0x47,0x3a,0x3a,0x53,0x45,0x08,0x3a,0x0a,0x40,0x6e,0x61,0x6d,0x65,0x49,0x22,0x0a,0x49,0x74,0x65,0x6d,0x31,0x06,0x3a,0x06,0x45,0x54,0x3a,0x0b,0x40,0x70,0x69,0x74,0x63,0x68,0x69,0x69,0x3a,0x0c,0x40,0x76,0x6f,0x6c,0x75,0x6d,0x65,0x69,0x55))
    ChangeInventoryArmor(31,0,0,1,false)
    0()
   EndIf()
   0()
  EndIf()
  If(1,3075,0,500,1)
   If(1,4075,0,2,0)
    ChangeVariable(4075,4075,0,0,3)
    ShowMessageFace("hituzi_fc1",3,0,2,3)
    ShowMessage("\\n<Mary (Affection:\\V[3075])>ひつじさんがプレゼントをあげるのら。 大切に使うのらよ……")
    250(bytes(0x04,0x08,0x6f,0x3a,0x0c,0x52,0x50,0x47,0x3a,0x3a,0x53,0x45,0x08,0x3a,0x0a,0x40,0x6e,0x61,0x6d,0x65,0x49,0x22,0x0a,0x49,0x74,0x65,0x6d,0x31,0x06,0x3a,0x06,0x45,0x54,0x3a,0x0b,0x40,0x70,0x69,0x74,0x63,0x68,0x69,0x69,0x3a,0x0c,0x40,0x76,0x6f,0x6c,0x75,0x6d,0x65,0x69,0x55))
    ChangeInventoryArmor(1556,0,0,1,false)
    0()
   EndIf()
   0()
  EndIf()
  If(1,3075,0,2000,1)
   If(1,4075,0,3,0)
    ChangeVariable(4075,4075,0,0,4)
    ShowMessageFace("hituzi_fc1",3,0,2,4)
    ShowMessage("\\n<Mary (Affection:\\V[3075])>ひつじさんがプレゼントをあげるのら。 大切に使うのらよ……")
    250(bytes(0x04,0x08,0x6f,0x3a,0x0c,0x52,0x50,0x47,0x3a,0x3a,0x53,0x45,0x08,0x3a,0x0a,0x40,0x6e,0x61,0x6d,0x65,0x49,0x22,0x0a,0x49,0x74,0x65,0x6d,0x31,0x06,0x3a,0x06,0x45,0x54,0x3a,0x0b,0x40,0x70,0x69,0x74,0x63,0x68,0x69,0x69,0x3a,0x0c,0x40,0x76,0x6f,0x6c,0x75,0x6d,0x65,0x69,0x55))
    ChangeInventoryArmor(1193,0,0,1,false)
    0()
   EndIf()
   0()
  EndIf()
  355("actor_label_jump")
  ShowMessageFace("hituzi_fc1",3,0,2,5)
  ShowMessage("\\n<Mary (Affection:\\V[3075])>ウェヒヒヒヒヒ……")
  ShowMessageFace("hituzi_fc1",7,0,2,6)
  ShowMessage("\\n<Mary (Affection:\\V[3075])>ぐびぐびぐび……")
  ShowMessageFace("hituzi_fc1",3,0,2,7)
  ShowMessage("\\n<Mary (Affection:\\V[3075])>ウェヒヒヒヒヒ……")
  JumpToLabel("メニュー")
  DefineLabel("74")
  ShowMessageFace("usagi_fc1",0,0,2,8)
  ShowMessage("\\n<Barnny (Affection:\\V[3074])>ひつじちゃん、今日は飲み過ぎじゃないの？ ちょっとはお酒を控えなさいよ……")
  ShowMessageFace("hituzi_fc1",2,0,2,9)
  ShowMessage("\\n<Mary (Affection:\\V[3075])>うさぎはうるさいのら…… ガタガタ言わずに酒を出すのだ……")
  ShowMessageFace("hituzi_fc1",3,0,2,10)
  ShowMessage("\\n<Mary (Affection:\\V[3075])>でも、心配してくれて嬉しいのらよ。 うさぎはいい嫁さんになるのら……")
  ShowMessageFace("usagi_fc1",0,0,2,11)
  ShowMessage("\\n<Barnny (Affection:\\V[3074])>はいはい、分かったからその一杯で終わりね。 ここじゃ冷えるから、ちゃんと部屋で寝なさい。")
  ShowMessageFace("hituzi_fc1",3,0,2,12)
  ShowMessage("\\n<Mary (Affection:\\V[3075])>ＺＺＺ……")
  ShowMessageFace("usagi_fc1",2,0,2,13)
  ShowMessage("\\n<Barnny (Affection:\\V[3074])>もう……")
  JumpToLabel("メニュー")
  DefineLabel("78")
  ShowMessageFace("syesta_fc1",0,0,2,14)
  ShowMessage("\\n<Shesta (Affection:\\V[3078])>こうしてお茶を飲んでいれば…… 記憶を取り戻すかも……")
  ShowMessageFace("hituzi_fc1",3,0,2,15)
  ShowMessage("\\n<Mary (Affection:\\V[3075])>茶なんかではダメなのら、酒を飲むのら。 ほら、グビグビいけ！")
  ShowMessageFace("syesta_fc1",0,0,2,16)
  ShowMessage("\\n<Shesta (Affection:\\V[3078])>それじゃあ、飲んでみる…… ぐびぐびぐび……")
  ShowMessageFace("syesta_fc1",0,0,2,17)
  ShowMessage("\\n<Shesta (Affection:\\V[3078])>……………………")
  ShowMessageFace("syesta_fc1",0,0,2,18)
  ShowMessage("\\n<Shesta (Affection:\\V[3078])>まったく、姉さんはお酒ばっかり飲んで。 それだから嫁のもらい手がないの、分かる？")
  ShowMessageFace("syesta_fc1",0,0,2,19)
  ShowMessage("\\n<Shesta (Affection:\\V[3078])>だいたい、お仕事はどうしたのよ。 半年ぶりに見付けた、道具屋のバイトなんでしょう？")
  ShowMessageFace("hituzi_fc1",3,0,2,20)
  ShowMessage("\\n<Mary (Affection:\\V[3075])>（本当に記憶が戻ってしまったのら……）")
  ShowMessageFace("syesta_fc1",0,0,2,21)
  ShowMessage("\\n<Shesta (Affection:\\V[3078])>……私、何を言っていたの？ 今の数分の記憶も、なくしてしまった……")
  ShowMessageFace("hituzi_fc1",3,0,2,22)
  ShowMessage("\\n<Mary (Affection:\\V[3075])>（飲ませない方がいいみたいら……）")
  JumpToLabel("メニュー")
  DefineLabel("112")
  ShowMessageFace("hituzi_fc1",3,0,2,23)
  ShowMessage("\\n<Mary (Affection:\\V[3075])>いい匂いがするから、ヒツジさんがやって来たのら。 それ、一杯飲ませるのら。")
  ShowMessageFace("utubo_fc1",2,0,2,24)
  ShowMessage("\\n<Kazura (Affection:\\V[3112])>ちょっと、ウツボカズラの中身を一気飲みする気？ 死んじゃうから、やめなよ……")
  ShowMessageFace("hituzi_fc1",3,0,2,25)
  ShowMessage("\\n<Mary (Affection:\\V[3075])>ぐびぐびぐび…… ……ぷはぁ、効くのら～！")
  ShowMessageFace("utubo_fc1",2,0,2,26)
  ShowMessage("\\n<Kazura (Affection:\\V[3112])>どういう胃袋してるんだろう……")
  JumpToLabel("メニュー")
  DefineLabel("メニュー")
  StartLoop()
   355("unlimited_choices(11, [\"Give presents\",")
   655("\"Add to party\",")
   655("\"View present list\",\"Request\",")
   655("\"Never mind\"])")
   If(1,11,0,0,0)
    355("present_start(75)")
    0()
   EndIf()
   If(1,11,0,1,0)
    PictureClear(5)
    355("move_actor_ex(75)")
    EndEventProcessing()
    0()
   EndIf()
   If(1,11,0,2,0)
    ShowMessageFace("",0,0,2,27)
    ShowMessage("Affection   10:\\ii[431]")
    ShowMessage("Affection  100:\\ia[31]")
    ShowMessage("Affection  500:\\ia[1556]")
    ShowMessage("Affection 2000:\\ia[1193]")
    0()
   EndIf()
   If(1,11,0,3,0)
    PictureClear(5)
    ShowMessageFace("",0,0,2,28)
    ShowMessage("Ask her for what? (Affection:\\V[3075])")
    ShowChoices(strings("Blowjob(Affection:10）","Never mind"),2)
    IfPlayerPicksChoice(0,null)
     If(1,3075,0,10,1)
      355("call_novel_scene(4166)")
      EndEventProcessing()
      0()
     Else()
      ShowMessageFace("hituzi_fc1",3,0,2,29)
      ShowMessage("\\n<Mary (Affection:\\V[3075])>うらー！　酒もってくるのらー！")
      0()
     EndIf()
     0()
    IfPlayerPicksChoice(1,null)
     0()
    404()
    0()
   EndIf()
   If(1,11,0,4,1)
    PictureClear(5)
    EndEventProcessing()
    0()
   EndIf()
   0()
  EndLoop()
  0()
 PAGE   2
  // condition: party contains actor #75
  0()



EVENT   52
 PAGE   1
  RunCommonEvent(111)
  0()



EVENT   53
 PAGE   1
  // condition: switch 1101 is ON
  PictureDisplay(5,"80_cent2_st01",0,0,0,0,100,100,0,0)
  PictureMove(5,null,0,0,0,0,100,100,255,0,30,true)
  If(1,3101,0,10,1)
   If(1,4101,0,0,0)
    ChangeVariable(4101,4101,0,0,1)
    ShowMessageFace("cent2_fc1",0,0,2,1)
    ShowMessage("\\n<Lihitinu (Affection:\\V[3101])>こ、これあげる…… 別に、特別な意味はないから！")
    250(bytes(0x04,0x08,0x6f,0x3a,0x0c,0x52,0x50,0x47,0x3a,0x3a,0x53,0x45,0x08,0x3a,0x0a,0x40,0x6e,0x61,0x6d,0x65,0x49,0x22,0x0a,0x49,0x74,0x65,0x6d,0x31,0x06,0x3a,0x06,0x45,0x54,0x3a,0x0b,0x40,0x70,0x69,0x74,0x63,0x68,0x69,0x69,0x3a,0x0c,0x40,0x76,0x6f,0x6c,0x75,0x6d,0x65,0x69,0x55))
    ChangeInventory_Item(30,0,0,1)
    0()
   EndIf()
   0()
  EndIf()
  If(1,3101,0,100,1)
   If(1,4101,0,1,0)
    ChangeVariable(4101,4101,0,0,2)
    ShowMessageFace("cent2_fc1",0,0,2,2)
    ShowMessage("\\n<Lihitinu (Affection:\\V[3101])>こ、これあげる…… 別に、特別な意味はないから！")
    250(bytes(0x04,0x08,0x6f,0x3a,0x0c,0x52,0x50,0x47,0x3a,0x3a,0x53,0x45,0x08,0x3a,0x0a,0x40,0x6e,0x61,0x6d,0x65,0x49,0x22,0x0a,0x49,0x74,0x65,0x6d,0x31,0x06,0x3a,0x06,0x45,0x54,0x3a,0x0b,0x40,0x70,0x69,0x74,0x63,0x68,0x69,0x69,0x3a,0x0c,0x40,0x76,0x6f,0x6c,0x75,0x6d,0x65,0x69,0x55))
    ChangeInventoryArmor(1054,0,0,1,false)
    0()
   EndIf()
   0()
  EndIf()
  If(1,3101,0,500,1)
   If(1,4101,0,2,0)
    ChangeVariable(4101,4101,0,0,3)
    ShowMessageFace("cent2_fc1",0,0,2,3)
    ShowMessage("\\n<Lihitinu (Affection:\\V[3101])>こ、これあげる…… 別に、特別な意味はないから！")
    250(bytes(0x04,0x08,0x6f,0x3a,0x0c,0x52,0x50,0x47,0x3a,0x3a,0x53,0x45,0x08,0x3a,0x0a,0x40,0x6e,0x61,0x6d,0x65,0x49,0x22,0x0a,0x49,0x74,0x65,0x6d,0x31,0x06,0x3a,0x06,0x45,0x54,0x3a,0x0b,0x40,0x70,0x69,0x74,0x63,0x68,0x69,0x69,0x3a,0x0c,0x40,0x76,0x6f,0x6c,0x75,0x6d,0x65,0x69,0x55))
    ChangeInventoryArmor(1090,0,0,1,false)
    0()
   EndIf()
   0()
  EndIf()
  If(1,3101,0,2000,1)
   If(1,4101,0,3,0)
    ChangeVariable(4101,4101,0,0,4)
    ShowMessageFace("cent2_fc1",0,0,2,4)
    ShowMessage("\\n<Lihitinu (Affection:\\V[3101])>こ、これあげる…… 別に、特別な意味はないから！")
    250(bytes(0x04,0x08,0x6f,0x3a,0x0c,0x52,0x50,0x47,0x3a,0x3a,0x53,0x45,0x08,0x3a,0x0a,0x40,0x6e,0x61,0x6d,0x65,0x49,0x22,0x0a,0x49,0x74,0x65,0x6d,0x31,0x06,0x3a,0x06,0x45,0x54,0x3a,0x0b,0x40,0x70,0x69,0x74,0x63,0x68,0x69,0x69,0x3a,0x0c,0x40,0x76,0x6f,0x6c,0x75,0x6d,0x65,0x69,0x55))
    ChangeInventoryArmor(1154,0,0,1,false)
    0()
   EndIf()
   0()
  EndIf()
  355("actor_label_jump")
  ShowMessageFace("cent2_fc1",0,0,2,5)
  ShowMessage("\\n<Lihitinu (Affection:\\V[3101])>体がなまっちゃうわ。 もっと走り回らせてよ！")
  JumpToLabel("メニュー")
  DefineLabel("62")
  ShowMessageFace("cent2_fc1",0,0,2,6)
  ShowMessage("\\n<Lihitinu (Affection:\\V[3101])>さあ、決着をつけるわよ！ 私の足が一番だってこと、分からせてあげるわ！")
  ShowMessageFace("gob_fc1",0,0,2,7)
  ShowMessage("\\n<Gob (Affection:\\V[3062])>負けないよ、かけっこで勝負だ！ 先に城内を五周した方が勝ちだからね！")
  ShowMessageFace("cent2_fc1",0,0,2,8)
  ShowMessage("\\n<Lihitinu (Affection:\\V[3101])>望むところよ、それじゃあ……")
  ShowMessageFace("sonia_fc2",5,0,2,9)
  ShowMessage("\\n<Sonya>こら！　城内を走っちゃ駄目でしょ！ 特にあんた達は、走る凶器なんだから！")
  JumpToLabel("メニュー")
  DefineLabel("148")
  ShowMessageFace("datyou_fc1",4,0,2,10)
  ShowMessage("\\n<Miu (Affection:\\V[3148])>足に自信があると見ました！ いざ、尋常に勝負です！")
  ShowMessageFace("cent2_fc1",0,0,2,11)
  ShowMessage("\\n<Lihitinu (Affection:\\V[3101])>受けて立つわ！ さっそく、走りで勝負よ！")
  ShowMessageFace("sonia_fc2",5,0,2,12)
  ShowMessage("\\n<Sonya>こら、城の中では走らないの！ スライムちゃんがはね飛ばされたの、忘れたの！？")
  JumpToLabel("メニュー")
  DefineLabel("156")
  ShowMessageFace("d_fighter_fc1",0,0,2,13)
  ShowMessage("\\n<Regina (Affection:\\V[3156])>（この女なんて、シャツ一枚に下半身裸なのに…… 　なんで、私の方が痴女扱いされるの……？）")
  ShowMessageFace("cent2_fc1",0,0,2,14)
  ShowMessage("\\n<Lihitinu (Affection:\\V[3101])>ろくでもない事を考えてる顔ね……")
  JumpToLabel("メニュー")
  DefineLabel("メニュー")
  StartLoop()
   355("unlimited_choices(11, [\"Give presents\",")
   655("\"Add to party\",")
   655("\"View present list\",\"Request\",")
   655("\"Never mind\"])")
   If(1,11,0,0,0)
    355("present_start(101)")
    0()
   EndIf()
   If(1,11,0,1,0)
    PictureClear(5)
    355("move_actor_ex(101)")
    EndEventProcessing()
    0()
   EndIf()
   If(1,11,0,2,0)
    ShowMessageFace("",0,0,2,15)
    ShowMessage("Affection   10:\\ii[30]")
    ShowMessage("Affection  100:\\ia[1054]")
    ShowMessage("Affection  500:\\ia[1090]")
    ShowMessage("Affection 2000:\\ia[1154]")
    0()
   EndIf()
   If(1,11,0,3,0)
    PictureClear(5)
    ShowMessageFace("",0,0,2,16)
    ShowMessage("Ask her for what? (Affection:\\V[3101])")
    ShowChoices(strings("Mating(Affection:10）","Never mind"),2)
    IfPlayerPicksChoice(0,null)
     If(1,3101,0,10,1)
      355("call_novel_scene(4296)")
      EndEventProcessing()
      0()
     Else()
      ShowMessageFace("cent2_fc1",0,0,2,17)
      ShowMessage("\\n<Lihitinu (Affection:\\V[3101])>あの、その…… また、今度ね……")
      0()
     EndIf()
     0()
    IfPlayerPicksChoice(1,null)
     0()
    404()
    0()
   EndIf()
   If(1,11,0,4,1)
    PictureClear(5)
    EndEventProcessing()
    0()
   EndIf()
   0()
  EndLoop()
  0()
 PAGE   2
  // condition: party contains actor #101
  0()



EVENT   55
 PAGE   1
  // condition: switch 1164 is ON
  PictureDisplay(5,"80_kooni_st01",0,0,0,0,100,100,0,0)
  PictureMove(5,null,0,0,0,0,100,100,255,0,30,true)
  If(1,3164,0,10,1)
   If(1,4164,0,0,0)
    ChangeVariable(4164,4164,0,0,1)
    ShowMessageFace("kooni_fc1",0,0,2,1)
    ShowMessage("\\n<Shizuku (Affection:\\V[3164])>こんなの拾ったよ！　あげる！")
    250(bytes(0x04,0x08,0x6f,0x3a,0x0c,0x52,0x50,0x47,0x3a,0x3a,0x53,0x45,0x08,0x3a,0x0a,0x40,0x6e,0x61,0x6d,0x65,0x49,0x22,0x0a,0x49,0x74,0x65,0x6d,0x31,0x06,0x3a,0x06,0x45,0x54,0x3a,0x0b,0x40,0x70,0x69,0x74,0x63,0x68,0x69,0x69,0x3a,0x0c,0x40,0x76,0x6f,0x6c,0x75,0x6d,0x65,0x69,0x55))
    ChangeInventory_Item(26,0,0,1)
    0()
   EndIf()
   0()
  EndIf()
  If(1,3164,0,100,1)
   If(1,4164,0,1,0)
    ChangeVariable(4164,4164,0,0,2)
    ShowMessageFace("kooni_fc1",0,0,2,2)
    ShowMessage("\\n<Shizuku (Affection:\\V[3164])>こんなの拾ったよ！　あげる！")
    250(bytes(0x04,0x08,0x6f,0x3a,0x0c,0x52,0x50,0x47,0x3a,0x3a,0x53,0x45,0x08,0x3a,0x0a,0x40,0x6e,0x61,0x6d,0x65,0x49,0x22,0x0a,0x49,0x74,0x65,0x6d,0x31,0x06,0x3a,0x06,0x45,0x54,0x3a,0x0b,0x40,0x70,0x69,0x74,0x63,0x68,0x69,0x69,0x3a,0x0c,0x40,0x76,0x6f,0x6c,0x75,0x6d,0x65,0x69,0x55))
    ChangeInventoryArmor(1050,0,0,1,false)
    0()
   EndIf()
   0()
  EndIf()
  If(1,3164,0,500,1)
   If(1,4164,0,2,0)
    ChangeVariable(4164,4164,0,0,3)
    ShowMessageFace("kooni_fc1",0,0,2,3)
    ShowMessage("\\n<Shizuku (Affection:\\V[3164])>こんなの拾ったよ！　あげる！")
    250(bytes(0x04,0x08,0x6f,0x3a,0x0c,0x52,0x50,0x47,0x3a,0x3a,0x53,0x45,0x08,0x3a,0x0a,0x40,0x6e,0x61,0x6d,0x65,0x49,0x22,0x0a,0x49,0x74,0x65,0x6d,0x31,0x06,0x3a,0x06,0x45,0x54,0x3a,0x0b,0x40,0x70,0x69,0x74,0x63,0x68,0x69,0x69,0x3a,0x0c,0x40,0x76,0x6f,0x6c,0x75,0x6d,0x65,0x69,0x55))
    ChangeInventoryArmor(1309,0,0,1,false)
    0()
   EndIf()
   0()
  EndIf()
  If(1,3164,0,2000,1)
   If(1,4164,0,3,0)
    ChangeVariable(4164,4164,0,0,4)
    ShowMessageFace("kooni_fc1",0,0,2,4)
    ShowMessage("\\n<Shizuku (Affection:\\V[3164])>こんなの拾ったよ！　あげる！")
    250(bytes(0x04,0x08,0x6f,0x3a,0x0c,0x52,0x50,0x47,0x3a,0x3a,0x53,0x45,0x08,0x3a,0x0a,0x40,0x6e,0x61,0x6d,0x65,0x49,0x22,0x0a,0x49,0x74,0x65,0x6d,0x31,0x06,0x3a,0x06,0x45,0x54,0x3a,0x0b,0x40,0x70,0x69,0x74,0x63,0x68,0x69,0x69,0x3a,0x0c,0x40,0x76,0x6f,0x6c,0x75,0x6d,0x65,0x69,0x55))
    ChangeInventoryArmor(1191,0,0,1,false)
    0()
   EndIf()
   0()
  EndIf()
  355("actor_label_jump")
  ShowMessageFace("kooni_fc1",0,0,2,5)
  ShowMessage("\\n<Shizuku (Affection:\\V[3164])>ひとあばれしたいよー！")
  JumpToLabel("メニュー")
  DefineLabel("13")
  ShowMessageFace("kooni_fc1",0,0,2,6)
  ShowMessage("\\n<Shizuku (Affection:\\V[3164])>ノームちゃんって、力持ちだよね！")
  ShowMessageFace("gnome_fc1",0,0,2,7)
  ShowMessage("\\n<Gnome (Affection:\\V[3013])>……………………")
  ShowMessageFace("kooni_fc1",2,0,2,8)
  ShowMessage("\\n<Shizuku (Affection:\\V[3164])>えっと、その…… 一緒にがんばろうね……")
  ShowMessageFace("gnome_fc1",0,0,2,9)
  ShowMessage("\\n<Gnome (Affection:\\V[3013])>……………………")
  ShowMessageFace("kooni_fc1",2,0,2,10)
  ShowMessage("\\n<Shizuku (Affection:\\V[3164])>ごめんね……")
  ShowMessageFace("gnome_fc1",0,0,2,11)
  ShowMessage("\\n<Gnome (Affection:\\V[3013])>……………………")
  JumpToLabel("メニュー")
  DefineLabel("62")
  ShowMessageFace("kooni_fc1",0,0,2,12)
  ShowMessage("\\n<Shizuku (Affection:\\V[3164])>やっほー、ゴブちゃん！")
  ShowMessageFace("gob_fc1",0,0,2,13)
  ShowMessage("\\n<Gob (Affection:\\V[3062])>わぁ、雫ちゃんだぁ！ また一緒に、おだんご食べに行こうよ！")
  ShowMessageFace("kooni_fc1",2,0,2,14)
  ShowMessage("\\n<Shizuku (Affection:\\V[3164])>それはいいけど、一人で走って置いてかないでよね。 ゴブちゃんのダッシュ、絶対に追いつけないんだから……")
  ShowMessageFace("gob_fc1",0,0,2,15)
  ShowMessage("\\n<Gob (Affection:\\V[3062])>足腰鍛えたらぁ？")
  ShowMessageFace("kooni_fc1",3,0,2,16)
  ShowMessage("\\n<Shizuku (Affection:\\V[3164])>水面をダッシュで駆け抜けられるあんたが鍛えすぎなのよ！")
  JumpToLabel("メニュー")
  DefineLabel("80")
  ShowMessageFace("orc_fc1",0,0,2,17)
  ShowMessage("\\n<Hip (Affection:\\V[3080])>あなたは……棍棒仲間ですね！ あなたもオークですか？")
  ShowMessageFace("kooni_fc1",2,0,2,18)
  ShowMessage("\\n<Shizuku (Affection:\\V[3164])>いや……あたしは鬼なんだけど。")
  ShowMessageFace("orc_fc1",1,0,2,19)
  ShowMessage("\\n<Hip (Affection:\\V[3080])>オニ！　まさに悪党の代名詞ですね。 オークと仲良くしましょう。")
  ShowMessageFace("kooni_fc1",2,0,2,20)
  ShowMessage("\\n<Shizuku (Affection:\\V[3164])>う、うん……よろしくね……")
  JumpToLabel("メニュー")
  DefineLabel("141")
  ShowMessageFace("kooni_fc1",0,0,2,21)
  ShowMessage("\\n<Shizuku (Affection:\\V[3164])>わぁ、すっごい筋肉！ あたしも、そんな風になりたい！")
  ShowMessageFace("mino_fc1",0,0,2,22)
  ShowMessage("\\n<Mina (Affection:\\V[3141])>なら牛丼を食え、牛丼！")
  ShowMessageFace("kooni_fc1",2,0,2,23)
  ShowMessage("\\n<Shizuku (Affection:\\V[3164])>でもミナさん、牛系の魔物だよね…… 牛丼とか、いいの？")
  ShowMessageFace("mino_fc1",0,0,2,24)
  ShowMessage("\\n<Mina (Affection:\\V[3141])>細かいこと気にすると、背が伸びないぞ！ さあ、牛乳を飲め！")
  ShowMessageFace("kooni_fc1",2,0,2,25)
  ShowMessage("\\n<Shizuku (Affection:\\V[3164])>いいのかな……")
  JumpToLabel("メニュー")
  DefineLabel("157")
  ShowMessageFace("oogumo_fc1",0,0,2,26)
  ShowMessage("\\n<Ashidaka (Affection:\\V[3157])>おっ、鬼か！ でも、なんだかちっちゃいなー。")
  ShowMessageFace("kooni_fc1",3,0,2,27)
  ShowMessage("\\n<Shizuku (Affection:\\V[3164])>なによ、すぐ大きくなるんだからね！")
  ShowMessageFace("oogumo_fc1",0,0,2,28)
  ShowMessage("\\n<Ashidaka (Affection:\\V[3157])>いっぱい食って、あたしみたいに大きくなれよ！")
  ShowMessageFace("kooni_fc1",2,0,2,29)
  ShowMessage("\\n<Shizuku (Affection:\\V[3164])>大きくなっても、顔だけになるのはイヤだなぁ……")
  ShowMessageFace("oogumo_fc1",2,0,2,30)
  ShowMessage("\\n<Ashidaka (Affection:\\V[3157])>誰が顔だけだー！")
  JumpToLabel("メニュー")
  DefineLabel("166")
  ShowMessageFace("kooni_fc1",2,0,2,31)
  ShowMessage("\\n<Shizuku (Affection:\\V[3164])>走ってたら転んで、ヒザすりむいちゃった……")
  ShowMessageFace("narcubus_fc1",3,0,2,32)
  ShowMessage("\\n<Manako (Affection:\\V[3166])>お薬、ぬりぬり…… ばんそうこう、ぺたっ。")
  ShowMessageFace("narcubus_fc1",0,0,2,33)
  ShowMessage("\\n<Manako (Affection:\\V[3166])>はい、これで大丈夫ですよ♪")
  ShowMessageFace("kooni_fc1",2,0,2,34)
  ShowMessage("\\n<Shizuku (Affection:\\V[3164])>ありがとう、それじゃいくよー！ ……あいたっ！　転んだっ！")
  ShowMessageFace("narcubus_fc1",2,0,2,35)
  ShowMessage("\\n<Manako (Affection:\\V[3166])>もう、気をつけなくちゃダメですよ……")
  JumpToLabel("メニュー")
  DefineLabel("メニュー")
  StartLoop()
   355("unlimited_choices(11, [\"Give presents\",")
   655("\"Add to party\",")
   655("\"View present list\",\"Request\",")
   655("\"Never mind\"])")
   If(1,11,0,0,0)
    355("present_start(164)")
    0()
   EndIf()
   If(1,11,0,1,0)
    PictureClear(5)
    355("move_actor_ex(164)")
    EndEventProcessing()
    0()
   EndIf()
   If(1,11,0,2,0)
    ShowMessageFace("",0,0,2,36)
    ShowMessage("Affection   10:\\ii[26]")
    ShowMessage("Affection  100:\\ia[1050]")
    ShowMessage("Affection  500:\\ia[1309]")
    ShowMessage("Affection 2000:\\ia[1191]")
    0()
   EndIf()
   If(1,11,0,3,0)
    PictureClear(5)
    ShowMessageFace("",0,0,2,37)
    ShowMessage("Ask her for what? (Affection:\\V[3164])")
    ShowChoices(strings("Reverse rape(Affection:10）","Never mind"),2)
    IfPlayerPicksChoice(0,null)
     If(1,3164,0,10,1)
      355("call_novel_scene(4621)")
      EndEventProcessing()
      0()
     Else()
      ShowMessageFace("kooni_fc1",2,0,2,38)
      ShowMessage("\\n<Shizuku (Affection:\\V[3164])>やだよぉ……そこまで仲良くないもん。")
      0()
     EndIf()
     0()
    IfPlayerPicksChoice(1,null)
     0()
    404()
    0()
   EndIf()
   If(1,11,0,4,1)
    PictureClear(5)
    EndEventProcessing()
    0()
   EndIf()
   0()
  EndLoop()
  0()
 PAGE   2
  // condition: party contains actor #164
  0()



EVENT   57
 PAGE   1
  // condition: switch 1168 is ON
  PictureDisplay(5,"80_dodome_st01",0,0,0,0,100,100,0,0)
  PictureMove(5,null,0,0,0,0,100,100,255,0,30,true)
  If(1,3168,0,10,1)
   If(1,4168,0,0,0)
    ChangeVariable(4168,4168,0,0,1)
    ShowMessageFace("dodome_fc1",0,0,2,1)
    ShowMessage("\\n<Manako (Affection:\\V[3168])>ほら、これをあげるわ。 これからも一緒にね……")
    250(bytes(0x04,0x08,0x6f,0x3a,0x0c,0x52,0x50,0x47,0x3a,0x3a,0x53,0x45,0x08,0x3a,0x0a,0x40,0x6e,0x61,0x6d,0x65,0x49,0x22,0x0a,0x49,0x74,0x65,0x6d,0x31,0x06,0x3a,0x06,0x45,0x54,0x3a,0x0b,0x40,0x70,0x69,0x74,0x63,0x68,0x69,0x69,0x3a,0x0c,0x40,0x76,0x6f,0x6c,0x75,0x6d,0x65,0x69,0x55))
    ChangeInventory_Item(29,0,0,1)
    0()
   EndIf()
   0()
  EndIf()
  If(1,3168,0,100,1)
   If(1,4168,0,1,0)
    ChangeVariable(4168,4168,0,0,2)
    ShowMessageFace("dodome_fc1",0,0,2,2)
    ShowMessage("\\n<Manako (Affection:\\V[3168])>ほら、これをあげるわ。 これからも一緒にね……")
    250(bytes(0x04,0x08,0x6f,0x3a,0x0c,0x52,0x50,0x47,0x3a,0x3a,0x53,0x45,0x08,0x3a,0x0a,0x40,0x6e,0x61,0x6d,0x65,0x49,0x22,0x0a,0x49,0x74,0x65,0x6d,0x31,0x06,0x3a,0x06,0x45,0x54,0x3a,0x0b,0x40,0x70,0x69,0x74,0x63,0x68,0x69,0x69,0x3a,0x0c,0x40,0x76,0x6f,0x6c,0x75,0x6d,0x65,0x69,0x55))
    ChangeInventoryArmor(1006,0,0,1,false)
    0()
   EndIf()
   0()
  EndIf()
  If(1,3168,0,500,1)
   If(1,4168,0,2,0)
    ChangeVariable(4168,4168,0,0,3)
    ShowMessageFace("dodome_fc1",0,0,2,3)
    ShowMessage("\\n<Manako (Affection:\\V[3168])>ほら、これをあげるわ。 これからも一緒にね……")
    250(bytes(0x04,0x08,0x6f,0x3a,0x0c,0x52,0x50,0x47,0x3a,0x3a,0x53,0x45,0x08,0x3a,0x0a,0x40,0x6e,0x61,0x6d,0x65,0x49,0x22,0x0a,0x49,0x74,0x65,0x6d,0x31,0x06,0x3a,0x06,0x45,0x54,0x3a,0x0b,0x40,0x70,0x69,0x74,0x63,0x68,0x69,0x69,0x3a,0x0c,0x40,0x76,0x6f,0x6c,0x75,0x6d,0x65,0x69,0x55))
    ChangeInventoryArmor(1197,0,0,1,false)
    0()
   EndIf()
   0()
  EndIf()
  If(1,3168,0,2000,1)
   If(1,4168,0,3,0)
    ChangeVariable(4168,4168,0,0,4)
    ShowMessageFace("dodome_fc1",0,0,2,4)
    ShowMessage("\\n<Manako (Affection:\\V[3168])>ほら、これをあげるわ。 これからも一緒にね……")
    250(bytes(0x04,0x08,0x6f,0x3a,0x0c,0x52,0x50,0x47,0x3a,0x3a,0x53,0x45,0x08,0x3a,0x0a,0x40,0x6e,0x61,0x6d,0x65,0x49,0x22,0x0a,0x49,0x74,0x65,0x6d,0x31,0x06,0x3a,0x06,0x45,0x54,0x3a,0x0b,0x40,0x70,0x69,0x74,0x63,0x68,0x69,0x69,0x3a,0x0c,0x40,0x76,0x6f,0x6c,0x75,0x6d,0x65,0x69,0x55))
    ChangeInventoryArmor(1114,0,0,1,false)
    0()
   EndIf()
   0()
  EndIf()
  355("actor_label_jump")
  ShowMessageFace("dodome_fc1",0,0,2,5)
  ShowMessage("\\n<Manako (Affection:\\V[3168])>こうやって、みんなを観察してるの。 監視なら任せてよね♪")
  JumpToLabel("メニュー")
  DefineLabel("136")
  ShowMessageFace("elf_fc1",2,0,2,6)
  ShowMessage("\\n<Claudia (Affection:\\V[3136])>ひゃっ、たくさんの目！ しかも、全部こっちを見てる……")
  ShowMessageFace("elf_fc1",2,0,2,7)
  ShowMessage("\\n<Claudia (Affection:\\V[3136])>ああ、そんなたくさんの目で私を見ないで……")
  ShowMessageFace("dodome_fc1",0,0,2,8)
  ShowMessage("\\n<Manako (Affection:\\V[3168])>（なんなの、この欲ボケエルフ……）")
  JumpToLabel("メニュー")
  DefineLabel("139")
  ShowMessageFace("fairys_fc1",3,0,2,9)
  ShowMessage("\\n<Fairies (Affection:\\V[3139])>わぁ～！　目がいっぱい～！ これ、ぜんぶ見えてるの？")
  ShowMessageFace("dodome_fc1",0,0,2,10)
  ShowMessage("\\n<Manako (Affection:\\V[3168])>ふふふっ、もちろんよ。 遠くだって見えるんだからね。")
  ShowMessageFace("fairys_fc1",3,0,2,11)
  ShowMessage("\\n<Fairies (Affection:\\V[3139])>じゃあ、かくれんぼも負けないの？")
  ShowMessageFace("dodome_fc1",0,0,2,12)
  ShowMessage("\\n<Manako (Affection:\\V[3168])>いや、見つけるのはいいんだけど…… 閉所は怖いから、隠れるのは苦手なのよ。")
  JumpToLabel("メニュー")
  DefineLabel("169")
  ShowMessageFace("lizardthief_fc1",0,0,2,13)
  ShowMessage("\\n<Liru (Affection:\\V[3169])>そんなに目が合ったら、盗みにくいな……")
  ShowMessageFace("dodome_fc1",0,0,2,14)
  ShowMessage("\\n<Manako (Affection:\\V[3168])>そうでしょう？ 私にスリの技は通用しないわよ……")
  ShowMessageFace("lizardthief_fc1",1,0,2,15)
  ShowMessage("\\n<Liru (Affection:\\V[3169])>そう言いつつ、財布はもらったんだぜ！")
  ShowMessageFace("dodome_fc1",2,0,2,16)
  ShowMessage("\\n<Manako (Affection:\\V[3168])>あっ、いつの間に……！ このぉ、返しなさいよー！")
  JumpToLabel("メニュー")
  DefineLabel("メニュー")
  StartLoop()
   355("unlimited_choices(11, [\"Give presents\",")
   655("\"Add to party\",")
   655("\"View present list\",\"Request\",")
   655("\"Never mind\"])")
   If(1,11,0,0,0)
    355("present_start(168)")
    0()
   EndIf()
   If(1,11,0,1,0)
    PictureClear(5)
    355("move_actor_ex(168)")
    EndEventProcessing()
    0()
   EndIf()
   If(1,11,0,2,0)
    ShowMessageFace("",0,0,2,17)
    ShowMessage("Affection   10:\\ii[29]")
    ShowMessage("Affection  100:\\ia[1006]")
    ShowMessage("Affection  500:\\ia[1197]")
    ShowMessage("Affection 2000:\\ia[1114]")
    0()
   EndIf()
   If(1,11,0,3,0)
    PictureClear(5)
    ShowMessageFace("",0,0,2,18)
    ShowMessage("Ask her for what? (Affection:\\V[3168])")
    ShowChoices(strings("Blowjob(Affection:10）","Never mind"),2)
    IfPlayerPicksChoice(0,null)
     If(1,3168,0,10,1)
      355("call_novel_scene(4641)")
      EndEventProcessing()
      0()
     Else()
      ShowMessageFace("dodome_fc1",0,0,2,19)
      ShowMessage("\\n<Manako (Affection:\\V[3168])>悪いけど、今日はそんな気分じゃないのよ。")
      0()
     EndIf()
     0()
    IfPlayerPicksChoice(1,null)
     0()
    404()
    0()
   EndIf()
   If(1,11,0,4,1)
    PictureClear(5)
    EndEventProcessing()
    0()
   EndIf()
   0()
  EndLoop()
  0()
 PAGE   2
  // condition: party contains actor #168
  0()



EVENT   54
 PAGE   1
  // condition: switch 1155 is ON
  241(bytes(0x04,0x08,0x6f,0x3a,0x0d,0x52,0x50,0x47,0x3a,0x3a,0x42,0x47,0x4d,0x08,0x3a,0x0a,0x40,0x6e,0x61,0x6d,0x65,0x49,0x22,0x09,0x73,0x61,0x6b,0x69,0x06,0x3a,0x06,0x45,0x54,0x3a,0x0c,0x40,0x76,0x6f,0x6c,0x75,0x6d,0x65,0x69,0x69,0x3a,0x0b,0x40,0x70,0x69,0x74,0x63,0x68,0x69,0x69))
  PictureDisplay(5,"80_saki_st01",0,0,0,0,100,100,0,0)
  PictureMove(5,null,0,0,0,0,100,100,255,0,30,true)
  If(1,3155,0,10,1)
   If(1,4155,0,0,0)
    ChangeVariable(4155,4155,0,0,1)
    ShowMessageFace("saki_fc1",3,0,2,1)
    ShowMessage("\\n<Saki (Affection:\\V[3155])>日頃、お世話になってるから…… サキからのプレゼント、大切に使ってね♪")
    250(bytes(0x04,0x08,0x6f,0x3a,0x0c,0x52,0x50,0x47,0x3a,0x3a,0x53,0x45,0x08,0x3a,0x0a,0x40,0x6e,0x61,0x6d,0x65,0x49,0x22,0x0a,0x49,0x74,0x65,0x6d,0x31,0x06,0x3a,0x06,0x45,0x54,0x3a,0x0b,0x40,0x70,0x69,0x74,0x63,0x68,0x69,0x69,0x3a,0x0c,0x40,0x76,0x6f,0x6c,0x75,0x6d,0x65,0x69,0x55))
    ChangeInventoryArmor(1732,0,0,1,false)
    0()
   EndIf()
   0()
  EndIf()
  If(1,3155,0,100,1)
   If(1,4155,0,1,0)
    ChangeVariable(4155,4155,0,0,2)
    ShowMessageFace("saki_fc1",3,0,2,2)
    ShowMessage("\\n<Saki (Affection:\\V[3155])>日頃、お世話になってるから…… サキからのプレゼント、大切に使ってね♪")
    250(bytes(0x04,0x08,0x6f,0x3a,0x0c,0x52,0x50,0x47,0x3a,0x3a,0x53,0x45,0x08,0x3a,0x0a,0x40,0x6e,0x61,0x6d,0x65,0x49,0x22,0x0a,0x49,0x74,0x65,0x6d,0x31,0x06,0x3a,0x06,0x45,0x54,0x3a,0x0b,0x40,0x70,0x69,0x74,0x63,0x68,0x69,0x69,0x3a,0x0c,0x40,0x76,0x6f,0x6c,0x75,0x6d,0x65,0x69,0x55))
    ChangeInventory_Item(527,0,0,1)
    0()
   EndIf()
   0()
  EndIf()
  If(1,3155,0,500,1)
   If(1,4155,0,2,0)
    ChangeVariable(4155,4155,0,0,3)
    ShowMessageFace("saki_fc1",3,0,2,3)
    ShowMessage("\\n<Saki (Affection:\\V[3155])>日頃、お世話になってるから…… サキからのプレゼント、大切に使ってね♪")
    250(bytes(0x04,0x08,0x6f,0x3a,0x0c,0x52,0x50,0x47,0x3a,0x3a,0x53,0x45,0x08,0x3a,0x0a,0x40,0x6e,0x61,0x6d,0x65,0x49,0x22,0x0a,0x49,0x74,0x65,0x6d,0x31,0x06,0x3a,0x06,0x45,0x54,0x3a,0x0b,0x40,0x70,0x69,0x74,0x63,0x68,0x69,0x69,0x3a,0x0c,0x40,0x76,0x6f,0x6c,0x75,0x6d,0x65,0x69,0x55))
    ChangeInventoryArmor(1336,0,0,1,false)
    0()
   EndIf()
   0()
  EndIf()
  If(1,3155,0,2000,1)
   If(1,4155,0,3,0)
    ChangeVariable(4155,4155,0,0,4)
    ShowMessageFace("saki_fc1",3,0,2,4)
    ShowMessage("\\n<Saki (Affection:\\V[3155])>日頃、お世話になってるから…… サキからのプレゼント、大切に使ってね♪")
    250(bytes(0x04,0x08,0x6f,0x3a,0x0c,0x52,0x50,0x47,0x3a,0x3a,0x53,0x45,0x08,0x3a,0x0a,0x40,0x6e,0x61,0x6d,0x65,0x49,0x22,0x0a,0x49,0x74,0x65,0x6d,0x31,0x06,0x3a,0x06,0x45,0x54,0x3a,0x0b,0x40,0x70,0x69,0x74,0x63,0x68,0x69,0x69,0x3a,0x0c,0x40,0x76,0x6f,0x6c,0x75,0x6d,0x65,0x69,0x55))
    ChangeInventoryArmor(1146,0,0,1,false)
    0()
   EndIf()
   0()
  EndIf()
  355("actor_label_jump")
  ShowMessageFace("saki_fc1",3,0,2,5)
  ShowMessage("\\n<Saki (Affection:\\V[3155])>抱きしめてあげる♪　指を絡めて心のスミまで♪ 抱きしめてあげる♪　唇重ねて問答無用よ♪")
  JumpToLabel("メニュー")
  DefineLabel("59")
  ShowMessageFace("mdg_fc1",0,0,2,6)
  ShowMessage("\\n<Ragora (Affection:\\V[3059])>あなた、アイドルなんでしょ。 私も、アイドルやるのが夢なのよね……")
  ShowMessageFace("saki_fc1",3,0,2,7)
  ShowMessage("\\n<Saki (Affection:\\V[3155])>夢で終わらせずに、やってみようよ！ トライでファイト、無限大だよっ☆")
  ShowMessageFace("mdg_fc1",2,0,2,8)
  ShowMessage("\\n<Ragora (Affection:\\V[3059])>じゃあ…… あ　あ　ぁ　ぁ　ぁ　ぁ　ぁ　！　！")
  ShowMessageFace("saki_fc1",0,0,2,9)
  ShowMessage("\\n<Saki (Affection:\\V[3155])>サキちゃん、びびびっ……")
  250(bytes(0x04,0x08,0x6f,0x3a,0x0c,0x52,0x50,0x47,0x3a,0x3a,0x53,0x45,0x08,0x3a,0x0a,0x40,0x6e,0x61,0x6d,0x65,0x49,0x22,0x0e,0x50,0x61,0x72,0x61,0x6c,0x79,0x7a,0x65,0x33,0x06,0x3a,0x06,0x45,0x54,0x3a,0x0b,0x40,0x70,0x69,0x74,0x63,0x68,0x69,0x69,0x3a,0x0c,0x40,0x76,0x6f,0x6c,0x75,0x6d,0x65,0x69,0x55))
  ShowMessageFace("",0,0,2,10)
  ShowMessage("サキは麻痺してしまった！")
  ShowMessageFace("mdg_fc1",2,0,2,11)
  ShowMessage("\\n<Ragora (Affection:\\V[3059])>やっぱりダメね……")
  JumpToLabel("メニュー")
  DefineLabel("82")
  ShowMessageFace("suzume_fc1",0,0,2,12)
  ShowMessage("\\n<Chirp (Affection:\\V[3082])>ちゅんちゅん…… あたしもビッグになりたいです。")
  ShowMessageFace("saki_fc1",0,0,2,13)
  ShowMessage("\\n<Saki (Affection:\\V[3155])>夢はおっきく、はばたかないとね♪")
  ShowMessageFace("suzume_fc1",3,0,2,14)
  ShowMessage("\\n<Chirp (Affection:\\V[3082])>あたし、他人を蹴落とすとか苦手ですし……")
  ShowMessageFace("saki_fc1",0,0,2,15)
  ShowMessage("\\n<Saki (Affection:\\V[3155])>アイドルの世界、どんなだと思ってるのよ…… ともかく、何か得意な事はある？")
  ShowMessageFace("suzume_fc1",1,0,2,16)
  ShowMessage("\\n<Chirp (Affection:\\V[3082])>えっと、朝帰りチェックは得意ですよ♪")
  ShowMessageFace("saki_fc1",2,0,2,17)
  ShowMessage("\\n<Saki (Affection:\\V[3155])>蹴落とすの、得意そうじゃない……")
  JumpToLabel("メニュー")
  DefineLabel("118")
  ShowMessageFace("meia_fc1",1,0,2,18)
  ShowMessage("\\n<Meia (Affection:\\V[3118])>アイドルなんて、すごいんですね。 私も歌には自信がありますけど、そこまでは……")
  ShowMessageFace("saki_fc1",0,0,2,19)
  ShowMessage("\\n<Saki (Affection:\\V[3155])>なら、一緒にアイドルやってみる？ メイアさんなら、かなり人気出ると思うよ☆")
  ShowMessageFace("meia_fc1",2,0,2,20)
  ShowMessage("\\n<Meia (Affection:\\V[3118])>人気ですか…… 少年のファンに囲まれて……ふふふっ……")
  ShowMessageFace("saki_fc1",2,0,2,21)
  ShowMessage("\\n<Saki (Affection:\\V[3155])>ファンに手出し厳禁…… ……っていうか、少年限定なの？")
  JumpToLabel("メニュー")
  DefineLabel("133")
  ShowMessageFace("zonbe_fc3",0,0,2,22)
  ShowMessage("\\n<Zombies (Affection:\\V[3133])>きんぐ・おぶ・ぞんび……")
  ShowMessageFace("zonbe_fc3",1,0,2,23)
  ShowMessage("\\n<Zombies (Affection:\\V[3133])>すりらぁ……")
  ShowMessageFace("zonbe_fc3",2,0,2,24)
  ShowMessage("\\n<Zombies (Affection:\\V[3133])>ぉぅぃぇ……")
  ShowMessageFace("",0,0,2,25)
  ShowMessage("ゾンビ達は踊っている……")
  ShowMessageFace("saki_fc1",0,0,2,26)
  ShowMessage("\\n<Saki (Affection:\\V[3155])>ちょっと、いいじゃない！ 今度、私のPVに出てよ♪")
  ShowMessageFace("zonbe_fc3",0,0,2,27)
  ShowMessage("\\n<Zombies (Affection:\\V[3133])>まさかのメジャーデビュー……")
  ShowMessageFace("zonbe_fc3",2,0,2,28)
  ShowMessage("\\n<Zombies (Affection:\\V[3133])>ぉぅぃぇ……")
  JumpToLabel("メニュー")
  DefineLabel("134")
  ShowMessageFace("saki_fc1",0,0,2,29)
  ShowMessage("\\n<Saki (Affection:\\V[3155])>クロムちゃんって、サキュバスなんだよね。 歌って踊って、男の人を魅了しようとか思わないの？")
  ShowMessageFace("chrom_fc2",5,0,2,30)
  ShowMessage("\\n<Chrome (Affection:\\V[3134])>興味ないのじゃ。 儂、ちんちくりんだし……")
  ShowMessageFace("saki_fc1",3,0,2,31)
  ShowMessage("\\n<Saki (Affection:\\V[3155])>ロリアイドルって手もあるじゃん♪ ……キラッ☆")
  ShowMessageFace("chrom_fc2",2,0,2,32)
  ShowMessage("\\n<Chrome (Affection:\\V[3134])>……のじゃっ☆")
  JumpToLabel("メニュー")
  DefineLabel("143")
  ShowMessageFace("eva_fc1",2,0,2,33)
  ShowMessage("\\n<Eva (Affection:\\V[3143])>歌って踊って、そんなので儲かるの……？")
  ShowMessageFace("saki_fc1",0,0,2,34)
  ShowMessage("\\n<Saki (Affection:\\V[3155])>サキは、あんまりお金の事考えてないけど…… ファンからプレゼントもあるし、生活には困らないよ。")
  ShowMessageFace("eva_fc1",0,0,2,35)
  ShowMessage("\\n<Eva (Affection:\\V[3143])>あたし、アイドルになる！ ねぇ、どういうアイドルで売れると思う？")
  ShowMessageFace("saki_fc1",2,0,2,36)
  ShowMessage("\\n<Saki (Affection:\\V[3155])>薄幸系とか、貧乏系とか……")
  ShowMessageFace("eva_fc1",2,0,2,37)
  ShowMessage("\\n<Eva (Affection:\\V[3143])>ろくなもんじゃない……")
  JumpToLabel("メニュー")
  DefineLabel("メニュー")
  StartLoop()
   355("unlimited_choices(11, [\"Give presents\",")
   655("\"Add to party\",")
   655("\"View present list\",\"Request\",")
   655("\"Never mind\"])")
   If(1,11,0,0,0)
    355("present_start(155)")
    0()
   EndIf()
   If(1,11,0,1,0)
    PictureClear(5)
    355("move_actor_ex(155)")
    EndEventProcessing()
    0()
   EndIf()
   If(1,11,0,2,0)
    ShowMessageFace("",0,0,2,38)
    ShowMessage("Affection   10:\\ia[1732]")
    ShowMessage("Affection  100:\\ii[527]")
    ShowMessage("Affection  500:\\ia[1336]")
    ShowMessage("Affection 2000:\\ia[1146]")
    0()
   EndIf()
   If(1,11,0,3,0)
    PictureClear(5)
    ShowMessageFace("",0,0,2,39)
    ShowMessage("Ask her for what? (Affection:\\V[3155])")
    ShowChoices(strings("No Touching!(Affection:10）","No Stripping!(Affection:50）","SEX OK!!(Affection:100）","Never mind"),4)
    IfPlayerPicksChoice(0,null)
     If(1,3155,0,10,1)
      355("call_novel_scene(4576)")
      EndEventProcessing()
      0()
     Else()
      ShowMessageFace("saki_fc1",2,0,2,40)
      ShowMessage("\\n<Saki (Affection:\\V[3155])>サキ、アイドルだし……そういうの、お断りしてます！")
      0()
     EndIf()
     0()
    IfPlayerPicksChoice(1,null)
     If(1,3155,0,50,1)
      355("call_novel_scene(4577)")
      EndEventProcessing()
      0()
     Else()
      ShowMessageFace("saki_fc1",2,0,2,41)
      ShowMessage("\\n<Saki (Affection:\\V[3155])>サキ、アイドルだし……そういうの、お断りしてます！")
      0()
     EndIf()
     0()
    IfPlayerPicksChoice(2,null)
     If(1,3155,0,100,1)
      355("call_novel_scene(4578)")
      EndEventProcessing()
      0()
     Else()
      ShowMessageFace("saki_fc1",2,0,2,42)
      ShowMessage("\\n<Saki (Affection:\\V[3155])>サキ、アイドルだし……そういうの、お断りしてます！")
      0()
     EndIf()
     0()
    IfPlayerPicksChoice(3,null)
     0()
    404()
    0()
   EndIf()
   If(1,11,0,4,1)
    PictureClear(5)
    EndEventProcessing()
    0()
   EndIf()
   0()
  EndLoop()
  0()
 PAGE   2
  // condition: party contains actor #155
  0()



EVENT   17
 PAGE   1
  // condition: switch 1560 is ON
  PictureDisplay(5,"80_mob_odoriko1_st01",0,0,0,0,100,100,0,0)
  PictureMove(5,null,0,0,0,0,100,100,255,0,30,true)
  355("actor_label_jump")
  ShowMessageFace("mob_odoriko1_fc1",0,0,2,1)
  ShowMessage("\\n<Melody (Affection:\\V[3560])>あたしの踊り、みんなに見せたいなー♪")
  JumpToLabel("メニュー")
  DefineLabel("メニュー")
  ShowChoices(strings("Add to party","Never mind"),2)
  IfPlayerPicksChoice(0,null)
   PictureClear(5)
   355("move_actor_ex(560)")
   EndEventProcessing()
   0()
  IfPlayerPicksChoice(1,null)
   PictureClear(5)
   EndEventProcessing()
   0()
  404()
  0()
 PAGE   2
  // condition: party contains actor #560
  0()



EVENT   21
 PAGE   1
  // condition: switch 1160 is ON
  PictureDisplay(5,"80_wormv_st01",0,0,0,0,100,100,0,0)
  PictureMove(5,null,0,0,0,0,100,100,255,0,30,true)
  If(1,3160,0,10,1)
   If(1,4160,0,0,0)
    ChangeVariable(4160,4160,0,0,1)
    ShowMessageFace("wormv_fc1",0,0,2,1)
    ShowMessage("\\n<Julia (Affection:\\V[3160])>これ、受け取って下さい…… 色々とお世話になっていますから……ふふふっ……")
    250(bytes(0x04,0x08,0x6f,0x3a,0x0c,0x52,0x50,0x47,0x3a,0x3a,0x53,0x45,0x08,0x3a,0x0a,0x40,0x6e,0x61,0x6d,0x65,0x49,0x22,0x0a,0x49,0x74,0x65,0x6d,0x31,0x06,0x3a,0x06,0x45,0x54,0x3a,0x0b,0x40,0x70,0x69,0x74,0x63,0x68,0x69,0x69,0x3a,0x0c,0x40,0x76,0x6f,0x6c,0x75,0x6d,0x65,0x69,0x55))
    ChangeInventory_Item(28,0,0,1)
    0()
   EndIf()
   0()
  EndIf()
  If(1,3160,0,100,1)
   If(1,4160,0,1,0)
    ChangeVariable(4160,4160,0,0,2)
    ShowMessageFace("wormv_fc1",0,0,2,2)
    ShowMessage("\\n<Julia (Affection:\\V[3160])>これ、受け取って下さい…… 色々とお世話になっていますから……ふふふっ……")
    250(bytes(0x04,0x08,0x6f,0x3a,0x0c,0x52,0x50,0x47,0x3a,0x3a,0x53,0x45,0x08,0x3a,0x0a,0x40,0x6e,0x61,0x6d,0x65,0x49,0x22,0x0a,0x49,0x74,0x65,0x6d,0x31,0x06,0x3a,0x06,0x45,0x54,0x3a,0x0b,0x40,0x70,0x69,0x74,0x63,0x68,0x69,0x69,0x3a,0x0c,0x40,0x76,0x6f,0x6c,0x75,0x6d,0x65,0x69,0x55))
    ChangeInventoryArmor(1026,0,0,1,false)
    0()
   EndIf()
   0()
  EndIf()
  If(1,3160,0,500,1)
   If(1,4160,0,2,0)
    ChangeVariable(4160,4160,0,0,3)
    ShowMessageFace("wormv_fc1",0,0,2,3)
    ShowMessage("\\n<Julia (Affection:\\V[3160])>これ、受け取って下さい…… 色々とお世話になっていますから……ふふふっ……")
    250(bytes(0x04,0x08,0x6f,0x3a,0x0c,0x52,0x50,0x47,0x3a,0x3a,0x53,0x45,0x08,0x3a,0x0a,0x40,0x6e,0x61,0x6d,0x65,0x49,0x22,0x0a,0x49,0x74,0x65,0x6d,0x31,0x06,0x3a,0x06,0x45,0x54,0x3a,0x0b,0x40,0x70,0x69,0x74,0x63,0x68,0x69,0x69,0x3a,0x0c,0x40,0x76,0x6f,0x6c,0x75,0x6d,0x65,0x69,0x55))
    ChangeInventoryArmor(1384,0,0,1,false)
    0()
   EndIf()
   0()
  EndIf()
  If(1,3160,0,2000,1)
   If(1,4160,0,3,0)
    ChangeVariable(4160,4160,0,0,4)
    ShowMessageFace("wormv_fc1",0,0,2,4)
    ShowMessage("\\n<Julia (Affection:\\V[3160])>これ、受け取って下さい…… 色々とお世話になっていますから……ふふふっ……")
    250(bytes(0x04,0x08,0x6f,0x3a,0x0c,0x52,0x50,0x47,0x3a,0x3a,0x53,0x45,0x08,0x3a,0x0a,0x40,0x6e,0x61,0x6d,0x65,0x49,0x22,0x0a,0x49,0x74,0x65,0x6d,0x31,0x06,0x3a,0x06,0x45,0x54,0x3a,0x0b,0x40,0x70,0x69,0x74,0x63,0x68,0x69,0x69,0x3a,0x0c,0x40,0x76,0x6f,0x6c,0x75,0x6d,0x65,0x69,0x55))
    ChangeInventoryArmor(1028,0,0,1,false)
    0()
   EndIf()
   0()
  EndIf()
  355("actor_label_jump")
  ShowMessageFace("wormv_fc1",0,0,2,5)
  ShowMessage("\\n<Julia (Affection:\\V[3160])>私に用ですか？ 何なりとお申し付けを……ふふふっ……")
  JumpToLabel("メニュー")
  DefineLabel("96")
  ShowMessageFace("wormv_fc1",0,0,2,6)
  ShowMessage("\\n<Julia (Affection:\\V[3160])>あら、同類……？ あなたも、リリィに力を与えられたんですか？")
  ShowMessageFace("delh_b_fc1",0,0,2,7)
  ShowMessage("\\n<Marion (Affection:\\V[3096])>いいえ……でも触手召喚の原理は同じね。 この肉体を触媒に触手を同化させたの……")
  ShowMessageFace("wormv_fc1",0,0,2,8)
  ShowMessage("\\n<Julia (Affection:\\V[3160])>さしずめあなたは、ワームエルフといったところですか……")
  ShowMessageFace("delh_b_fc1",2,0,2,9)
  ShowMessage("\\n<Marion (Affection:\\V[3096])>そういう貴方は、ダーク人間…… ……いまいちなネーミングね。")
  JumpToLabel("メニュー")
  DefineLabel("158")
  ShowMessageFace("suckvore_fc1",2,0,2,10)
  ShowMessage("\\n<Anna (Affection:\\V[3158])>……………………")
  ShowMessageFace("wormv_fc1",0,0,2,11)
  ShowMessage("\\n<Julia (Affection:\\V[3160])>そんなに怯えなくても、ここは安全ですよ……")
  ShowMessageFace("suckvore_fc1",1,0,2,12)
  ShowMessage("\\n<Anna (Affection:\\V[3158])>おどおど……")
  ShowMessageFace("suckvore_fc1",1,0,2,13)
  ShowMessage("\\n<Anna (Affection:\\V[3158])>びくびく……")
  ShowMessageFace("suckvore_fc1",2,0,2,14)
  ShowMessage("\\n<Anna (Affection:\\V[3158])>……………………")
  ShowMessageFace("wormv_fc1",0,0,2,15)
  ShowMessage("\\n<Julia (Affection:\\V[3160])>まったく、怖がりですねぇ……")
  JumpToLabel("メニュー")
  DefineLabel("163")
  ShowMessageFace("wormv_fc1",0,0,2,16)
  ShowMessage("\\n<Julia (Affection:\\V[3160])>リリィ様…… 私を救って下さり、感謝しています……")
  ShowMessageFace("lily_fc1",3,0,2,17)
  ShowMessage("\\n<Lily (Affection:\\V[3163])>私は、力を与えてあげただけ。 あなたを救ったのは、あなた自身よ……")
  ShowMessageFace("wormv_fc1",0,0,2,18)
  ShowMessage("\\n<Julia (Affection:\\V[3160])>それでも、あなたの助けがなければ叶いませんでした。 願わくば、世界中の弱者が私のように救われん事を……")
  ShowMessageFace("lily_fc1",3,0,2,19)
  ShowMessage("\\n<Lily (Affection:\\V[3163])>ええ……これからは、私達で多くの人を救いましょう。 さあ、私についてきなさい。")
  JumpToLabel("メニュー")
  DefineLabel("167")
  ShowMessageFace("wormv_fc1",0,0,2,20)
  ShowMessage("\\n<Julia (Affection:\\V[3160])>魔導の力に救われながら、その力を封じる…… それでいながら、その力を探究する……")
  ShowMessageFace("wormv_fc1",0,0,2,21)
  ShowMessage("\\n<Julia (Affection:\\V[3160])>ルシア様、矛盾は感じられないのですか……？")
  ShowMessageFace("lusia_fc1",0,0,2,22)
  ShowMessage("\\n<Lucia (Affection:\\V[3167])>手厳しいのですね…… でも、知ることは何より重要なのですよ。")
  ShowMessageFace("lusia_fc1",0,0,2,23)
  ShowMessage("\\n<Lucia (Affection:\\V[3167])>危険なものこそ、知り尽くさねばなりません。 そうして律さなければならない力なのです。")
  ShowMessageFace("wormv_fc1",0,0,2,24)
  ShowMessage("\\n<Julia (Affection:\\V[3160])>なるほど、責めるつもりではありませんでした。 私自身、矛盾と迷いを感じていたので……")
  ShowMessageFace("lusia_fc1",0,0,2,25)
  ShowMessage("\\n<Lucia (Affection:\\V[3167])>では、研究を進めましょう。 ふふっ、第三触手の神経伝達がスムーズに……")
  ShowMessageFace("wormv_fc1",2,0,2,26)
  ShowMessage("\\n<Julia (Affection:\\V[3160])>（やっぱり、研究は趣味じゃ……）")
  JumpToLabel("メニュー")
  DefineLabel("メニュー")
  StartLoop()
   355("unlimited_choices(11, [\"Give presents\",")
   655("\"Add to party\",")
   655("\"View present list\",\"Request\",")
   655("\"Never mind\"])")
   If(1,11,0,0,0)
    355("present_start(160)")
    0()
   EndIf()
   If(1,11,0,1,0)
    PictureClear(5)
    355("move_actor_ex(160)")
    EndEventProcessing()
    0()
   EndIf()
   If(1,11,0,2,0)
    ShowMessageFace("",0,0,2,27)
    ShowMessage("Affection   10:\\ii[28]")
    ShowMessage("Affection  100:\\ia[1026]")
    ShowMessage("Affection  500:\\ia[1384]")
    ShowMessage("Affection 2000:\\ia[1028]")
    0()
   EndIf()
   If(1,11,0,3,0)
    PictureClear(5)
    ShowMessageFace("",0,0,2,28)
    ShowMessage("Ask her for what? (Affection:\\V[3160])")
    ShowChoices(strings("Worm Drain(Affection:10）","Never mind"),2)
    IfPlayerPicksChoice(0,null)
     If(1,3160,0,10,1)
      355("call_novel_scene(4601)")
      EndEventProcessing()
      0()
     Else()
      ShowMessageFace("wormv_fc1",0,0,2,29)
      ShowMessage("\\n<Julia (Affection:\\V[3160])>今日は少し散歩したので、お腹いっぱい…… また別の機会にでも……")
      0()
     EndIf()
     0()
    IfPlayerPicksChoice(1,null)
     0()
    404()
    0()
   EndIf()
   If(1,11,0,4,1)
    PictureClear(5)
    EndEventProcessing()
    0()
   EndIf()
   0()
  EndLoop()
  0()
 PAGE   2
  // condition: party contains actor #160
  0()



EVENT   16
 PAGE   1
  // condition: switch 1548 is ON
  PictureDisplay(5,"80_mob_bunny1_st01",0,0,0,0,100,100,0,0)
  PictureMove(5,null,0,0,0,0,100,100,255,0,30,true)
  355("actor_label_jump")
  ShowMessageFace("mob_bunny1_fc1",0,0,2,1)
  ShowMessage("\\n<Bunny-Chan (Affection:\\V[3548])>どこかに遊びにいきたいなー♪")
  JumpToLabel("メニュー")
  DefineLabel("メニュー")
  ShowChoices(strings("Add to party","Never mind"),2)
  IfPlayerPicksChoice(0,null)
   PictureClear(5)
   355("move_actor_ex(548)")
   EndEventProcessing()
   0()
  IfPlayerPicksChoice(1,null)
   PictureClear(5)
   EndEventProcessing()
   0()
  404()
  0()
 PAGE   2
  // condition: party contains actor #548
  0()



EVENT   18
 PAGE   1
  // condition: switch 1549 is ON
  PictureDisplay(5,"80_mob_touzoku_st01",0,0,0,0,100,100,0,0)
  PictureMove(5,null,0,0,0,0,100,100,255,0,30,true)
  355("actor_label_jump")
  ShowMessageFace("mob_touzoku_fc1",0,0,2,1)
  ShowMessage("\\n<Louise (Affection:\\V[3549])>ん？　仕事かい……？ 盗賊のテクを見たいなら、連れていきなよ。")
  JumpToLabel("メニュー")
  DefineLabel("メニュー")
  ShowChoices(strings("Add to party","Never mind"),2)
  IfPlayerPicksChoice(0,null)
   PictureClear(5)
   355("move_actor_ex(549)")
   EndEventProcessing()
   0()
  IfPlayerPicksChoice(1,null)
   PictureClear(5)
   EndEventProcessing()
   0()
  404()
  0()
 PAGE   2
  // condition: party contains actor #549
  0()
