# -*- encoding: utf-8 -*-
=begin
= フィールド特殊化

=end

#==============================================================================
# ■ NWConst::Field
#==============================================================================
module NWConst::Field
  # フィールド特殊化マップID
  # 現在
  # ・ポケット魔王城呼び出し可能判定
  # ・マップ表示呼び出し可能判定
  # ・マップ軽量化
  # の３つが適用されます
  FIELD_MAP_ID = [2, 1, 193]
  # BGMの自動切替適用マップID
  AUTO_BGM_MAP_ID = [2]
  
  # フェードアウトに掛けるフレーム数
  # ※除算にも使っているので絶対に0は指定しないでください
  FADEOUT_FRAME = 120
  # フェードインに掛けるフレーム数
  FADEIN_FRAME  = 60
  
  # BGM設定
  BGM = {
    # マップID
    2 => {
      # 0はリージョンが未設定の状態です。引数はname, volume, pitch
      0 => RPG::BGM.new("field1", 100, 100),
      1 => RPG::BGM.new("field1", 100, 100),
      2 => RPG::BGM.new("field1", 100, 100),
      3 => RPG::BGM.new("field1", 100, 100),
      4 => RPG::BGM.new("field1", 100, 100),
      5 => RPG::BGM.new("field1", 100, 100),
      6 => RPG::BGM.new("field1", 100, 100),
      7 => RPG::BGM.new("field2", 100, 100),
      8 => RPG::BGM.new("field2", 100, 100),
      9 => RPG::BGM.new("field2", 100, 100),
      10 => RPG::BGM.new("sabaku", 100, 100),
      11 => RPG::BGM.new("sabaku", 100, 100),
      12 => RPG::BGM.new("field2", 100, 100),
      13 => RPG::BGM.new("field2", 100, 100),
      14 => RPG::BGM.new("field2", 100, 100),
      15 => RPG::BGM.new("field2", 100, 100),
      16 => RPG::BGM.new("field2", 100, 100),
      17 => RPG::BGM.new("field2", 100, 100),
      18 => RPG::BGM.new("field2", 100, 100),
      19 => RPG::BGM.new("field2", 100, 100),
      20 => RPG::BGM.new("field2", 100, 100),
      21 => RPG::BGM.new("field2", 100, 100),
      22 => RPG::BGM.new("field2", 100, 100),
      23 => RPG::BGM.new("field2", 100, 100),
      24 => RPG::BGM.new("field2", 100, 100),
      25 => RPG::BGM.new("field4", 100, 100),
    },
    194 => {
      0 => RPG::BGM.new("field2", 100, 100),
      1 => RPG::BGM.new("field2", 100, 100),
      2 => RPG::BGM.new("field2", 100, 100),
      3 => RPG::BGM.new("field2", 100, 100),
      4 => RPG::BGM.new("field4", 100, 100),
    }
  }
  # BGS設定
  BGS = {
    2 => {
      #22 => RPG::BGS.new("Sea", 100, 100),
    },
    194 => {
    
    }
  }
  # 地形定義
  TERRAIN = {
#    :森 => {
    :Forest => {
      :tag => 1,
      :map_id => [
        125, 128, 132, 153, 205, 206, 207, 208, 209, 331,
        332, 333, 415, 416, 417, 443, 670, 674,
      ],
     },
#    :砂漠 => {
    :Desert => {
      :tag => 2,
      :map_id => [
        114, 115, 116, 117, 307, 379, 380, 381, 393, 397,
        404, 405, 407, 408, 409, 410, 411, 412, 413, 414,
        445, 653, 655, 676, 677,
      ],    
    },
#    :海 => {
    :Sea => {
      :tag => 3,
      :map_id => [
        124, 127, 131, 369, 370, 371, 372, 373, 376, 478,
        479, 671, 672,
      ],
    },
#    :深海 => {
    :Deep Sea => {
      :tag => -1,
      :map_id => [
        145, 146, 147, 148, 149, 659,
      ],
    },
#    :洞窟 => {
    :Cave => {
      :tag => -1,
      :map_id => [
         17,  18,  62,  63,  64,  65,  66,  67,  68,  69,
         70,  71,  72,  73,  74,  75,  76,  77,  78,  79,
         80,  81,  82,  83,  84,  85, 150, 155, 156, 157,
        158, 160, 161, 163, 165, 166, 175, 192, 198, 204,
        210, 214, 231, 232, 233, 234, 236, 239, 241, 243,
        245, 247, 258, 259, 261, 263, 265, 266, 267, 283,
        284, 285, 286, 287, 288, 289, 290, 328, 330, 364,
        365, 366, 367, 368, 398, 399, 400, 401, 402, 403,
        444, 449, 475, 643, 647, 656, 657, 658, 664, 699,
        700, 704,
      ],      
    },
#    :市街 => {
    :Town => {
      :tag => -1,
      :map_id => [
         23,  24,  29,  45,  46,  55,  56, 164, 176, 177,
        185, 219, 225, 226, 279, 280, 338, 359, 360, 361,
        362, 363, 378, 387, 388, 389, 483, 513, 515, 616,
        624, 679, 681, 682, 683, 684, 686, 687, 688, 689,
        690, 691, 692, 693, 694, 695, 697, 698,
      ],
    },
  }   
end




